<svg width="321" height="731" viewBox="0 0 321 731" fill="none" xmlns="http://www.w3.org/2000/svg">
<path d="M34.205 681.09C33.135 681.09 32.285 680.95 31.655 680.67C31.025 680.38 30.55 679.835 30.23 679.035C29.91 678.225 29.75 677.045 29.75 675.495C29.75 673.945 29.91 672.76 30.23 671.94C30.56 671.12 31.04 670.565 31.67 670.275C32.3 669.975 33.145 669.825 34.205 669.825C35.275 669.825 36.125 669.975 36.755 670.275C37.395 670.565 37.875 671.12 38.195 671.94C38.515 672.75 38.675 673.935 38.675 675.495C38.675 677.045 38.51 678.225 38.18 679.035C37.86 679.835 37.385 680.38 36.755 680.67C36.135 680.95 35.285 681.09 34.205 681.09ZM34.205 679.425C34.895 679.425 35.42 679.325 35.78 679.125C36.15 678.925 36.415 678.55 36.575 678C36.735 677.44 36.815 676.605 36.815 675.495C36.815 674.345 36.73 673.485 36.56 672.915C36.4 672.345 36.14 671.965 35.78 671.775C35.42 671.585 34.895 671.49 34.205 671.49C33.535 671.49 33.02 671.59 32.66 671.79C32.3 671.98 32.035 672.36 31.865 672.93C31.695 673.49 31.61 674.345 31.61 675.495C31.61 676.615 31.685 677.45 31.835 678C31.995 678.55 32.255 678.925 32.615 679.125C32.975 679.325 33.505 679.425 34.205 679.425ZM40.5847 669.93H42.0697L47.1097 677.835V669.93H48.9697V681H47.4847L42.4447 673.095V681H40.5847V669.93ZM53.4887 681.075C52.7887 681.075 52.1837 680.92 51.6737 680.61C51.1737 680.3 50.9237 679.675 50.9237 678.735V672.345C50.9237 671.495 51.1537 670.88 51.6137 670.5C52.0737 670.12 52.6287 669.93 53.2787 669.93C54.2187 669.93 55.0287 669.945 55.7087 669.975C56.3887 670.005 57.1687 670.045 58.0487 670.095V671.64H53.8637C53.5137 671.64 53.2437 671.73 53.0537 671.91C52.8637 672.08 52.7687 672.34 52.7687 672.69V674.655L57.3737 674.76V676.215L52.7687 676.32V678.225C52.7687 678.965 53.1287 679.335 53.8487 679.335H58.0487V680.88C56.7887 680.99 55.2687 681.055 53.4887 681.075ZM63.7557 669.93H68.3307C69.2207 669.93 69.9557 670.185 70.5357 670.695C71.1157 671.195 71.4057 672.175 71.4057 673.635C71.4057 676.175 70.3907 677.445 68.3607 677.445C68.0507 677.445 67.5957 677.42 66.9957 677.37C66.3957 677.32 65.9307 677.27 65.6007 677.22V681H63.7557V669.93ZM68.0907 675.765C68.5507 675.765 68.9057 675.6 69.1557 675.27C69.4157 674.94 69.5457 674.4 69.5457 673.65C69.5457 672.28 69.0807 671.595 68.1507 671.595H65.6007V675.765H68.0907ZM75.4592 681C74.6392 681 74.0192 680.81 73.5992 680.43C73.1892 680.04 72.9842 679.405 72.9842 678.525V669.93H74.8292V678.225C74.8292 678.635 74.9242 678.92 75.1142 679.08C75.3142 679.24 75.5842 679.32 75.9242 679.32H79.5992V681H75.4592ZM83.9069 669.93H86.2469L89.8469 681H87.9119L87.0569 678.375H83.0519L82.2119 681H80.3069L83.9069 669.93ZM86.6069 676.71L85.0469 671.52L83.4869 676.71H86.6069ZM94.7504 681.09C93.8104 681.09 93.0604 680.945 92.5004 680.655C91.9404 680.355 91.5104 679.795 91.2104 678.975C90.9204 678.155 90.7754 676.97 90.7754 675.42C90.7754 673.95 90.9254 672.81 91.2254 672C91.5254 671.18 91.9654 670.615 92.5454 670.305C93.1254 669.985 93.8754 669.825 94.7954 669.825C95.3954 669.825 95.9954 669.875 96.5954 669.975C97.2054 670.065 97.7254 670.175 98.1554 670.305V671.73C97.8554 671.67 97.4254 671.615 96.8654 671.565C96.3154 671.515 95.7504 671.49 95.1704 671.49C94.5104 671.49 94.0004 671.595 93.6404 671.805C93.2904 672.005 93.0354 672.385 92.8754 672.945C92.7154 673.505 92.6354 674.34 92.6354 675.45C92.6354 676.56 92.7104 677.395 92.8604 677.955C93.0104 678.515 93.2604 678.9 93.6104 679.11C93.9604 679.32 94.4754 679.425 95.1554 679.425C96.2954 679.425 97.2954 679.37 98.1554 679.26V680.685C97.2454 680.955 96.1104 681.09 94.7504 681.09ZM102.239 681.075C101.539 681.075 100.934 680.92 100.424 680.61C99.9237 680.3 99.6737 679.675 99.6737 678.735V672.345C99.6737 671.495 99.9037 670.88 100.364 670.5C100.824 670.12 101.379 669.93 102.029 669.93C102.969 669.93 103.779 669.945 104.459 669.975C105.139 670.005 105.919 670.045 106.799 670.095V671.64H102.614C102.264 671.64 101.994 671.73 101.804 671.91C101.614 672.08 101.519 672.34 101.519 672.69V674.655L106.124 674.76V676.215L101.519 676.32V678.225C101.519 678.965 101.879 679.335 102.599 679.335H106.799V680.88C105.539 680.99 104.019 681.055 102.239 681.075ZM112.506 672.345C112.506 671.495 112.736 670.88 113.196 670.5C113.656 670.12 114.211 669.93 114.861 669.93C116.831 669.93 118.421 669.985 119.631 670.095V671.64H115.401C115.071 671.64 114.811 671.73 114.621 671.91C114.441 672.09 114.351 672.345 114.351 672.675V674.91L118.956 675.015V676.47L114.351 676.575V681H112.506V672.345ZM125.333 681.09C124.263 681.09 123.413 680.95 122.783 680.67C122.153 680.38 121.678 679.835 121.358 679.035C121.038 678.225 120.878 677.045 120.878 675.495C120.878 673.945 121.038 672.76 121.358 671.94C121.688 671.12 122.168 670.565 122.798 670.275C123.428 669.975 124.273 669.825 125.333 669.825C126.403 669.825 127.253 669.975 127.883 670.275C128.523 670.565 129.003 671.12 129.323 671.94C129.643 672.75 129.803 673.935 129.803 675.495C129.803 677.045 129.638 678.225 129.308 679.035C128.988 679.835 128.513 680.38 127.883 680.67C127.263 680.95 126.413 681.09 125.333 681.09ZM125.333 679.425C126.023 679.425 126.548 679.325 126.908 679.125C127.278 678.925 127.543 678.55 127.703 678C127.863 677.44 127.943 676.605 127.943 675.495C127.943 674.345 127.858 673.485 127.688 672.915C127.528 672.345 127.268 671.965 126.908 671.775C126.548 671.585 126.023 671.49 125.333 671.49C124.663 671.49 124.148 671.59 123.788 671.79C123.428 671.98 123.163 672.36 122.993 672.93C122.823 673.49 122.738 674.345 122.738 675.495C122.738 676.615 122.813 677.45 122.963 678C123.123 678.55 123.383 678.925 123.743 679.125C124.103 679.325 124.633 679.425 125.333 679.425ZM131.593 669.93H136.093C137.033 669.93 137.778 670.18 138.328 670.68C138.878 671.17 139.153 672.065 139.153 673.365C139.153 674.345 138.978 675.06 138.628 675.51C138.288 675.96 137.838 676.28 137.278 676.47L139.408 681H137.533L135.613 676.74C135.003 676.74 134.278 676.73 133.438 676.71V681H131.593V669.93ZM135.778 675.255C136.258 675.255 136.628 675.12 136.888 674.85C137.158 674.57 137.293 674.075 137.293 673.365C137.293 672.685 137.158 672.22 136.888 671.97C136.628 671.72 136.258 671.595 135.778 671.595H133.438V675.255H135.778ZM154.255 681L153.325 673.08L151.135 681H149.395L147.19 673.125L146.305 681H144.52L145.795 669.93H147.595L150.28 678.795L152.95 669.93H154.75L156.055 681H154.255ZM160.723 669.93H163.063L166.663 681H164.728L163.873 678.375H159.868L159.028 681H157.123L160.723 669.93ZM163.423 676.71L161.863 671.52L160.303 676.71H163.423ZM168.143 669.93H169.628L174.668 677.835V669.93H176.528V681H175.043L170.003 673.095V681H168.143V669.93ZM181.197 677.535L177.807 669.93H179.727L182.157 675.645L184.587 669.93H186.462L183.057 677.535V681H181.197V677.535ZM194.153 671.595H190.973V669.93H199.178V671.595H196.013V681H194.153V671.595ZM200.455 669.93H204.955C205.895 669.93 206.64 670.18 207.19 670.68C207.74 671.17 208.015 672.065 208.015 673.365C208.015 674.345 207.84 675.06 207.49 675.51C207.15 675.96 206.7 676.28 206.14 676.47L208.27 681H206.395L204.475 676.74C203.865 676.74 203.14 676.73 202.3 676.71V681H200.455V669.93ZM204.64 675.255C205.12 675.255 205.49 675.12 205.75 674.85C206.02 674.57 206.155 674.075 206.155 673.365C206.155 672.685 206.02 672.22 205.75 671.97C205.49 671.72 205.12 671.595 204.64 671.595H202.3V675.255H204.64ZM213.837 681.075C212.467 681.075 211.417 680.815 210.687 680.295C209.967 679.765 209.607 678.825 209.607 677.475V669.93H211.452V677.475C211.452 678.175 211.652 678.675 212.052 678.975C212.452 679.265 213.047 679.41 213.837 679.41C214.627 679.41 215.222 679.265 215.622 678.975C216.022 678.675 216.222 678.175 216.222 677.475V669.93H218.067V677.475C218.067 678.825 217.702 679.765 216.972 680.295C216.252 680.815 215.207 681.075 213.837 681.075ZM223.671 681.09C222.731 681.09 221.981 680.945 221.421 680.655C220.861 680.355 220.431 679.795 220.131 678.975C219.841 678.155 219.696 676.97 219.696 675.42C219.696 673.95 219.846 672.81 220.146 672C220.446 671.18 220.886 670.615 221.466 670.305C222.046 669.985 222.796 669.825 223.716 669.825C224.316 669.825 224.916 669.875 225.516 669.975C226.126 670.065 226.646 670.175 227.076 670.305V671.73C226.776 671.67 226.346 671.615 225.786 671.565C225.236 671.515 224.671 671.49 224.091 671.49C223.431 671.49 222.921 671.595 222.561 671.805C222.211 672.005 221.956 672.385 221.796 672.945C221.636 673.505 221.556 674.34 221.556 675.45C221.556 676.56 221.631 677.395 221.781 677.955C221.931 678.515 222.181 678.9 222.531 679.11C222.881 679.32 223.396 679.425 224.076 679.425C225.216 679.425 226.216 679.37 227.076 679.26V680.685C226.166 680.955 225.031 681.09 223.671 681.09ZM228.741 669.93H230.586V674.655H232.236L234.771 669.93H236.751L233.706 675.48L236.826 681H234.846L232.221 676.335H230.586V681H228.741V669.93ZM241.474 681.09C240.934 681.09 240.334 681.06 239.674 681C239.014 680.94 238.469 680.86 238.039 680.76V679.305C238.939 679.385 240.054 679.425 241.384 679.425C242.054 679.425 242.559 679.33 242.899 679.14C243.249 678.95 243.424 678.605 243.424 678.105V677.58C243.424 677.19 243.314 676.89 243.094 676.68C242.874 676.47 242.549 676.365 242.119 676.365H241.084C240.034 676.365 239.244 676.135 238.714 675.675C238.194 675.215 237.934 674.47 237.934 673.44V672.87C237.934 671.83 238.224 671.065 238.804 670.575C239.384 670.085 240.244 669.84 241.384 669.84C241.904 669.84 242.469 669.875 243.079 669.945C243.699 670.015 244.229 670.095 244.669 670.185V671.64C243.319 671.55 242.294 671.505 241.594 671.505C240.964 671.505 240.489 671.61 240.169 671.82C239.859 672.02 239.704 672.395 239.704 672.945V673.32C239.704 673.77 239.824 674.095 240.064 674.295C240.314 674.495 240.689 674.595 241.189 674.595H242.344C243.274 674.595 243.979 674.85 244.459 675.36C244.949 675.86 245.194 676.525 245.194 677.355V678.06C245.194 679.21 244.874 680.005 244.234 680.445C243.594 680.875 242.674 681.09 241.474 681.09ZM253.334 681.075C252.774 681.075 252.274 680.955 251.834 680.715C251.394 680.465 251.049 680.12 250.799 679.68C250.549 679.23 250.424 678.715 250.424 678.135C250.424 677.025 250.884 676.085 251.804 675.315L252.734 674.52L252.509 674.175C252.219 673.755 252.024 673.385 251.924 673.065C251.834 672.745 251.789 672.42 251.789 672.09C251.789 671.35 252.039 670.81 252.539 670.47C253.039 670.13 253.699 669.96 254.519 669.96C255.579 669.96 256.509 670.055 257.309 670.245V671.595H254.864C254.054 671.595 253.649 671.895 253.649 672.495C253.649 672.695 253.704 672.915 253.814 673.155C253.924 673.385 254.109 673.675 254.369 674.025L256.769 677.31L258.944 675.315L259.634 676.14L258.599 677.625L257.684 678.51L259.559 681H257.624L256.499 679.56L255.974 680.04C255.544 680.42 255.124 680.69 254.714 680.85C254.304 681 253.844 681.075 253.334 681.075ZM253.649 679.38C253.909 679.38 254.154 679.33 254.384 679.23C254.614 679.13 254.859 678.96 255.119 678.72L255.524 678.315L253.634 675.795L252.989 676.365C252.699 676.615 252.494 676.865 252.374 677.115C252.254 677.365 252.194 677.635 252.194 677.925C252.194 678.355 252.324 678.705 252.584 678.975C252.854 679.245 253.209 679.38 253.649 679.38ZM267.647 681C266.827 681 266.207 680.81 265.787 680.43C265.377 680.04 265.172 679.405 265.172 678.525V669.93H267.017V678.225C267.017 678.635 267.112 678.92 267.302 679.08C267.502 679.24 267.772 679.32 268.112 679.32H271.787V681H267.647ZM277.281 681.09C276.211 681.09 275.361 680.95 274.731 680.67C274.101 680.38 273.626 679.835 273.306 679.035C272.986 678.225 272.826 677.045 272.826 675.495C272.826 673.945 272.986 672.76 273.306 671.94C273.636 671.12 274.116 670.565 274.746 670.275C275.376 669.975 276.221 669.825 277.281 669.825C278.351 669.825 279.201 669.975 279.831 670.275C280.471 670.565 280.951 671.12 281.271 671.94C281.591 672.75 281.751 673.935 281.751 675.495C281.751 677.045 281.586 678.225 281.256 679.035C280.936 679.835 280.461 680.38 279.831 680.67C279.211 680.95 278.361 681.09 277.281 681.09ZM277.281 679.425C277.971 679.425 278.496 679.325 278.856 679.125C279.226 678.925 279.491 678.55 279.651 678C279.811 677.44 279.891 676.605 279.891 675.495C279.891 674.345 279.806 673.485 279.636 672.915C279.476 672.345 279.216 671.965 278.856 671.775C278.496 671.585 277.971 671.49 277.281 671.49C276.611 671.49 276.096 671.59 275.736 671.79C275.376 671.98 275.111 672.36 274.941 672.93C274.771 673.49 274.686 674.345 274.686 675.495C274.686 676.615 274.761 677.45 274.911 678C275.071 678.55 275.331 678.925 275.691 679.125C276.051 679.325 276.581 679.425 277.281 679.425ZM286.304 669.93H288.644L292.244 681H290.309L289.454 678.375H285.449L284.609 681H282.704L286.304 669.93ZM289.004 676.71L287.444 671.52L285.884 676.71H289.004ZM293.604 669.93H298.179C299.549 669.93 300.519 670.4 301.089 671.34C301.669 672.28 301.959 673.655 301.959 675.465C301.959 677.295 301.644 678.675 301.014 679.605C300.384 680.535 299.439 681 298.179 681H293.604V669.93ZM297.999 679.335C298.729 679.335 299.264 679.01 299.604 678.36C299.944 677.7 300.114 676.735 300.114 675.465C300.114 674.465 300.039 673.685 299.889 673.125C299.739 672.565 299.509 672.17 299.199 671.94C298.899 671.71 298.499 671.595 297.999 671.595H295.449V679.335H297.999ZM307.011 681.09C306.471 681.09 305.871 681.06 305.211 681C304.551 680.94 304.006 680.86 303.576 680.76V679.305C304.476 679.385 305.591 679.425 306.921 679.425C307.591 679.425 308.096 679.33 308.436 679.14C308.786 678.95 308.961 678.605 308.961 678.105V677.58C308.961 677.19 308.851 676.89 308.631 676.68C308.411 676.47 308.086 676.365 307.656 676.365H306.621C305.571 676.365 304.781 676.135 304.251 675.675C303.731 675.215 303.471 674.47 303.471 673.44V672.87C303.471 671.83 303.761 671.065 304.341 670.575C304.921 670.085 305.781 669.84 306.921 669.84C307.441 669.84 308.006 669.875 308.616 669.945C309.236 670.015 309.766 670.095 310.206 670.185V671.64C308.856 671.55 307.831 671.505 307.131 671.505C306.501 671.505 306.026 671.61 305.706 671.82C305.396 672.02 305.241 672.395 305.241 672.945V673.32C305.241 673.77 305.361 674.095 305.601 674.295C305.851 674.495 306.226 674.595 306.726 674.595H307.881C308.811 674.595 309.516 674.85 309.996 675.36C310.486 675.86 310.731 676.525 310.731 677.355V678.06C310.731 679.21 310.411 680.005 309.771 680.445C309.131 680.875 308.211 681.09 307.011 681.09Z" fill="white"/>
<g opacity="0.9">
<path opacity="0.9" d="M187.598 456.661V433.004H114.871L114.81 435.182L114.871 456.661" stroke="#3F5167" stroke-width="2" stroke-miterlimit="10" stroke-linecap="round"/>
<path opacity="0.9" d="M183.302 465.072H187.477V456.601H114.81" stroke="#3F5167" stroke-width="2" stroke-miterlimit="10" stroke-linecap="round"/>
<path opacity="0.9" d="M109.909 465.072H146.092" stroke="#3F5167" stroke-width="2" stroke-miterlimit="10" stroke-linecap="round"/>
<path opacity="0.9" d="M158.616 465.072H170.778" stroke="#3F5167" stroke-width="2" stroke-miterlimit="10" stroke-linecap="round"/>
<path opacity="0.9" d="M92.1814 465.072H97.8689" stroke="#3F5167" stroke-width="2" stroke-miterlimit="10" stroke-linecap="round"/>
<path opacity="0.9" d="M92.7864 458.416H95.4487" stroke="#3F5167" stroke-width="2" stroke-miterlimit="10" stroke-linecap="round"/>
<path opacity="0.9" d="M177.191 471.606C180.533 471.606 183.242 468.897 183.242 465.556C183.242 462.214 180.533 459.505 177.191 459.505C173.85 459.505 171.141 462.214 171.141 465.556C171.141 468.897 173.85 471.606 177.191 471.606Z" stroke="#3F5167" stroke-width="2" stroke-miterlimit="10" stroke-linecap="round"/>
<path opacity="0.9" d="M177.191 467.734C178.394 467.734 179.369 466.759 179.369 465.556C179.369 464.353 178.394 463.378 177.191 463.378C175.988 463.378 175.013 464.353 175.013 465.556C175.013 466.759 175.988 467.734 177.191 467.734Z" stroke="#3F5167" stroke-width="2" stroke-miterlimit="10" stroke-linecap="round"/>
<path opacity="0.9" d="M152.566 471.606C155.907 471.606 158.616 468.897 158.616 465.556C158.616 462.214 155.907 459.505 152.566 459.505C149.224 459.505 146.515 462.214 146.515 465.556C146.515 468.897 149.224 471.606 152.566 471.606Z" stroke="#3F5167" stroke-width="2" stroke-miterlimit="10" stroke-linecap="round"/>
<path opacity="0.9" d="M152.566 467.734C153.769 467.734 154.744 466.759 154.744 465.556C154.744 464.353 153.769 463.378 152.566 463.378C151.363 463.378 150.387 464.353 150.387 465.556C150.387 466.759 151.363 467.734 152.566 467.734Z" stroke="#3F5167" stroke-width="2" stroke-miterlimit="10" stroke-linecap="round"/>
<path opacity="0.9" d="M114.81 465.072V456.601L114.871 440.083" stroke="#3F5167" stroke-width="2" stroke-miterlimit="10" stroke-linecap="round"/>
<path opacity="0.9" d="M114.871 440.083H101.802C101.62 440.628 101.257 438.691 96.5378 453.213L92.3024 456.117V465.072" stroke="#3F5167" stroke-width="2" stroke-miterlimit="10" stroke-linecap="round"/>
<path opacity="0.9" d="M103.98 471.606C107.322 471.606 110.03 468.897 110.03 465.556C110.03 462.214 107.322 459.505 103.98 459.505C100.638 459.505 97.9294 462.214 97.9294 465.556C97.9294 468.897 100.638 471.606 103.98 471.606Z" stroke="#3F5167" stroke-width="2" stroke-miterlimit="10" stroke-linecap="round"/>
<path opacity="0.9" d="M103.98 467.734C105.183 467.734 106.158 466.759 106.158 465.556C106.158 464.353 105.183 463.378 103.98 463.378C102.777 463.378 101.802 464.353 101.802 465.556C101.802 466.759 102.777 467.734 103.98 467.734Z" stroke="#3F5167" stroke-width="2" stroke-miterlimit="10" stroke-linecap="round"/>
<path opacity="0.9" d="M100.894 442.927L110.938 443.048V452.245H97.3243" stroke="#3F5167" stroke-width="2" stroke-miterlimit="10" stroke-linecap="round"/>
<path opacity="0.9" d="M172.29 438.268H194.133" stroke="#3F5167" stroke-width="2" stroke-miterlimit="10" stroke-linecap="round"/>
<path opacity="0.9" d="M179.551 443.048H197.703" stroke="#3F5167" stroke-width="2" stroke-miterlimit="10" stroke-linecap="round"/>
<path opacity="0.9" d="M198.671 438.268H203.995" stroke="#3F5167" stroke-width="2" stroke-miterlimit="10" stroke-linecap="round"/>
</g>
<g opacity="0.9">
<path opacity="0.9" d="M255.788 453.273L252.278 467.189H259.297L255.788 453.273Z" stroke="#3F5167" stroke-width="2" stroke-miterlimit="10" stroke-linecap="round"/>
<path opacity="0.9" d="M255.788 453.273L252.278 467.189H259.297L255.788 453.273Z" stroke="#3F5167" stroke-width="2" stroke-miterlimit="10" stroke-linecap="round"/>
<path opacity="0.9" d="M255.788 467.189V473.058" stroke="#3F5167" stroke-width="2" stroke-miterlimit="10" stroke-linecap="round"/>
</g>
<g opacity="0.9">
<g opacity="0.9">
<path opacity="0.9" d="M238.664 466.947C244.445 466.947 249.132 462.261 249.132 456.48C249.132 450.699 244.445 446.013 238.664 446.013C232.883 446.013 228.197 450.699 228.197 456.48C228.197 462.261 232.883 466.947 238.664 466.947Z" stroke="#3F5167" stroke-width="2" stroke-miterlimit="10" stroke-linecap="round"/>
<path opacity="0.9" d="M238.664 466.947C244.445 466.947 249.132 462.261 249.132 456.48C249.132 450.699 244.445 446.013 238.664 446.013C232.883 446.013 228.197 450.699 228.197 456.48C228.197 462.261 232.883 466.947 238.664 466.947Z" stroke="#3F5167" stroke-width="2" stroke-miterlimit="10" stroke-linecap="round"/>
<path opacity="0.9" d="M238.664 473.058V457.388" stroke="#3F5167" stroke-width="2" stroke-miterlimit="10" stroke-linecap="round"/>
</g>
</g>
<path d="M39.7838 -1V181.121C39.7838 181.121 41.4175 235.999 88.3695 235.091H250.1L256.756 235.273C288.4 235.273 314.054 261.895 314.054 294.81C314.054 327.725 288.46 354.65 256.756 354.347L253.428 354.045L59.0245 353.742H58.2984C26.6542 353.742 1 380.364 1 413.279C1 446.194 26.5937 473.119 58.2984 472.816L61.1422 472.695H262.383L262.685 472.816C294.329 472.816 319.984 499.439 319.984 532.354C319.984 565.268 294.39 592.193 262.685 591.891L255.908 591.77H95.7512L95.4486 591.891C63.8044 591.891 38.1502 618.513 38.1502 651.428V799" stroke="#3F5167" stroke-width="2" stroke-miterlimit="10" stroke-dasharray="5 5"/>
<path d="M38.3317 338.253H52.3084L55.9992 341.581L52.3084 344.848H40.8729V356.162" stroke="#3F5167" stroke-width="2" stroke-miterlimit="10" stroke-linecap="round"/>
<path d="M42.4461 341.52H28.4694L24.7786 338.253L28.4694 334.985H42.4461V341.52Z" stroke="#3F5167" stroke-width="2" stroke-miterlimit="10" stroke-linecap="round"/>
<path d="M42.4461 341.52H28.4694L24.7786 338.253L28.4694 334.985H42.4461" stroke="#3F5167" stroke-width="2" stroke-miterlimit="10" stroke-linecap="round"/>
<path opacity="0.7" d="M11.8909 413.098C11.8909 440.386 33.1283 462.833 59.5085 462.531" stroke="#3F5167" stroke-width="2" stroke-miterlimit="10" stroke-linecap="round"/>
<path opacity="0.7" d="M258.51 483.344C285.798 483.344 308.246 504.582 307.943 530.962" stroke="#3F5167" stroke-width="2" stroke-miterlimit="10" stroke-linecap="round"/>
<g opacity="0.9">
<path opacity="0.9" d="M265.529 575.615L262.564 587.413H268.494L265.529 575.615Z" stroke="#3F5167" stroke-width="2" stroke-miterlimit="10" stroke-linecap="round"/>
<path opacity="0.9" d="M265.529 575.615L262.564 587.413H268.494L265.529 575.615Z" stroke="#3F5167" stroke-width="2" stroke-miterlimit="10" stroke-linecap="round"/>
<path opacity="0.9" d="M265.529 587.413V591.104" stroke="#3F5167" stroke-width="2" stroke-miterlimit="10" stroke-linecap="round"/>
</g>
<g opacity="0.9">
<path opacity="0.9" d="M237.696 517.167H222.933V520.131H237.696V517.167Z" stroke="#3F5167" stroke-width="2" stroke-miterlimit="10" stroke-linecap="round"/>
<path opacity="0.9" d="M220.029 591.104V520.131H240.722V591.104" stroke="#3F5167" stroke-width="2" stroke-miterlimit="10" stroke-linecap="round"/>
<g opacity="0.9">
<path opacity="0.9" d="M220.029 591.104V520.131H240.722V591.104" stroke="#3F5167" stroke-width="2" stroke-miterlimit="10" stroke-linecap="round"/>
<path opacity="0.9" d="M237.696 517.167H222.933V520.131H237.696V517.167Z" stroke="#3F5167" stroke-width="2" stroke-miterlimit="10" stroke-linecap="round"/>
<g opacity="0.9">
<g opacity="0.9">
<path opacity="0.9" d="M220.029 585.175H240.722" stroke="#3F5167" stroke-width="2" stroke-miterlimit="10" stroke-linecap="round"/>
</g>
<g opacity="0.9">
<path opacity="0.9" d="M220.029 579.245H240.722" stroke="#3F5167" stroke-width="2" stroke-miterlimit="10" stroke-linecap="round"/>
</g>
<g opacity="0.9">
<path opacity="0.9" d="M220.029 573.376H240.722" stroke="#3F5167" stroke-width="2" stroke-miterlimit="10" stroke-linecap="round"/>
</g>
<g opacity="0.9">
<path opacity="0.9" d="M220.029 567.447H240.722" stroke="#3F5167" stroke-width="2" stroke-miterlimit="10" stroke-linecap="round"/>
</g>
<g opacity="0.9">
<path opacity="0.9" d="M220.029 561.517H240.722" stroke="#3F5167" stroke-width="2" stroke-miterlimit="10" stroke-linecap="round"/>
</g>
<g opacity="0.9">
<path opacity="0.9" d="M220.029 555.588H240.722" stroke="#3F5167" stroke-width="2" stroke-miterlimit="10" stroke-linecap="round"/>
</g>
<g opacity="0.9">
<path opacity="0.9" d="M220.029 549.658H240.722" stroke="#3F5167" stroke-width="2" stroke-miterlimit="10" stroke-linecap="round"/>
</g>
<g opacity="0.9">
<path opacity="0.9" d="M220.029 543.789H240.722" stroke="#3F5167" stroke-width="2" stroke-miterlimit="10" stroke-linecap="round"/>
</g>
<g opacity="0.9">
<path opacity="0.9" d="M220.029 537.859H240.722" stroke="#3F5167" stroke-width="2" stroke-miterlimit="10" stroke-linecap="round"/>
</g>
<g opacity="0.9">
<path opacity="0.9" d="M220.029 531.93H240.722" stroke="#3F5167" stroke-width="2" stroke-miterlimit="10" stroke-linecap="round"/>
</g>
<g opacity="0.9">
<path opacity="0.9" d="M220.029 526H240.722" stroke="#3F5167" stroke-width="2" stroke-miterlimit="10" stroke-linecap="round"/>
</g>
</g>
</g>
<path opacity="0.9" d="M225.898 511.237V517.167" stroke="#3F5167" stroke-width="2" stroke-miterlimit="10" stroke-linecap="round"/>
<path opacity="0.9" d="M234.792 514.202V517.167" stroke="#3F5167" stroke-width="2" stroke-miterlimit="10" stroke-linecap="round"/>
</g>
<g opacity="0.9">
<path opacity="0.9" d="M255.545 534.895H243.686V537.859H255.545V534.895Z" stroke="#3F5167" stroke-width="2" stroke-miterlimit="10" stroke-linecap="round"/>
<path opacity="0.9" d="M249.555 531.93H246.591V534.895H249.555V531.93Z" stroke="#3F5167" stroke-width="2" stroke-miterlimit="10" stroke-linecap="round"/>
<path opacity="0.9" d="M258.45 537.859H240.722V543.789H258.45V537.859Z" stroke="#3F5167" stroke-width="2" stroke-miterlimit="10" stroke-linecap="round"/>
<path opacity="0.9" d="M258.45 592.375V537.859H240.722V591.104" stroke="#3F5167" stroke-width="2" stroke-miterlimit="10" stroke-linecap="round"/>
<path opacity="0.9" d="M246.591 543.789V591.951" stroke="#3F5167" stroke-width="2" stroke-miterlimit="10" stroke-linecap="round"/>
<path opacity="0.9" d="M252.52 543.789V591.951" stroke="#3F5167" stroke-width="2" stroke-miterlimit="10" stroke-linecap="round"/>
<path opacity="0.9" d="M255.545 534.895H243.686V537.859H255.545V534.895Z" stroke="#3F5167" stroke-width="2" stroke-miterlimit="10" stroke-linecap="round"/>
<path opacity="0.9" d="M249.555 531.93H246.591V534.895H249.555V531.93Z" stroke="#3F5167" stroke-width="2" stroke-miterlimit="10" stroke-linecap="round"/>
<path opacity="0.9" d="M240.722 543.789H258.45" stroke="#3F5167" stroke-width="2" stroke-miterlimit="10" stroke-linecap="round"/>
<path opacity="0.9" d="M240.722 540.824H258.45" stroke="#3F5167" stroke-width="2" stroke-miterlimit="10" stroke-linecap="round"/>
</g>
<path d="M227.169 273.452C227.048 273.028 227.048 272.605 227.048 272.181C227.048 269.035 229.589 266.494 232.735 266.494C235.216 266.494 237.333 268.127 238.12 270.366" stroke="#3F5167" stroke-width="2" stroke-miterlimit="10" stroke-linecap="round"/>
<path d="M238.059 270.427C238.362 270.306 238.725 270.245 239.088 270.245C240.903 270.245 242.355 271.637 242.476 273.452" stroke="#3F5167" stroke-width="2" stroke-miterlimit="10" stroke-linecap="round"/>
<path d="M227.229 277.869C226.019 277.869 225.051 276.9 225.051 275.69C225.051 274.48 226.019 273.512 227.229 273.512H227.169" stroke="#3F5167" stroke-width="2" stroke-miterlimit="10" stroke-linecap="round"/>
<path d="M242.476 273.452H244.292C245.502 273.452 246.47 274.42 246.47 275.63C246.47 276.84 245.502 277.808 244.292 277.808" stroke="#3F5167" stroke-width="2" stroke-miterlimit="10" stroke-linecap="round"/>
<path opacity="0.7" d="M67.1322 344.908H96.9008" stroke="#3F5167" stroke-width="2" stroke-miterlimit="10" stroke-linecap="round"/>
<path opacity="0.7" d="M226.503 344.908C226.503 344.908 249.737 344.727 258.268 344.908C272.668 345.211 291.486 336.377 297.96 316.955" stroke="#3F5167" stroke-width="2" stroke-miterlimit="10" stroke-linecap="round"/>
<path d="M233.522 281.983H252.339" stroke="#3F5167" stroke-width="2" stroke-miterlimit="10" stroke-linecap="round"/>
<path d="M256.453 281.983H261.778" stroke="#3F5167" stroke-width="2" stroke-miterlimit="10" stroke-linecap="round"/>
<path d="M226.503 286.702H238.241" stroke="#3F5167" stroke-width="2" stroke-miterlimit="10" stroke-linecap="round"/>
<path d="M244.715 286.702H249.434" stroke="#3F5167" stroke-width="2" stroke-miterlimit="10" stroke-linecap="round"/>
<g opacity="0.9">
<path opacity="0.9" d="M77.4181 151.292C77.2971 150.868 77.2971 150.445 77.2971 150.021C77.2971 146.875 79.8383 144.333 82.9845 144.333C85.4653 144.333 87.5829 145.967 88.3695 148.206" stroke="#3F5167" stroke-width="2" stroke-miterlimit="10" stroke-linecap="round"/>
<path opacity="0.9" d="M88.309 148.206C88.6115 148.085 88.9746 148.024 89.3376 148.024C91.1528 148.024 92.6049 149.416 92.7259 151.231" stroke="#3F5167" stroke-width="2" stroke-miterlimit="10" stroke-linecap="round"/>
<path opacity="0.9" d="M77.4786 155.648C76.2685 155.648 75.3004 154.68 75.3004 153.47C75.3004 152.26 76.2685 151.292 77.4786 151.292H77.4181" stroke="#3F5167" stroke-width="2" stroke-miterlimit="10" stroke-linecap="round"/>
<path opacity="0.9" d="M92.6654 151.292H94.4806C95.6907 151.292 96.6588 152.26 96.6588 153.47C96.6588 154.68 95.6907 155.648 94.4806 155.648" stroke="#3F5167" stroke-width="2" stroke-miterlimit="10" stroke-linecap="round"/>
</g>
<path opacity="0.9" d="M83.7711 159.762H102.588" stroke="#3F5167" stroke-width="2" stroke-miterlimit="10" stroke-linecap="round"/>
<path opacity="0.9" d="M106.703 159.762H112.027" stroke="#3F5167" stroke-width="2" stroke-miterlimit="10" stroke-linecap="round"/>
<path opacity="0.9" d="M76.7526 164.482H88.4906" stroke="#3F5167" stroke-width="2" stroke-miterlimit="10" stroke-linecap="round"/>
<path opacity="0.9" d="M94.9646 164.482H99.684" stroke="#3F5167" stroke-width="2" stroke-miterlimit="10" stroke-linecap="round"/>
<g opacity="0.9">
<path opacity="0.9" d="M129.271 221.175L126.79 231.219H131.812L129.271 221.175Z" stroke="#3F5167" stroke-width="2" stroke-miterlimit="10" stroke-linecap="round"/>
<path opacity="0.9" d="M129.271 221.175L126.79 231.219H131.812L129.271 221.175Z" stroke="#3F5167" stroke-width="2" stroke-miterlimit="10" stroke-linecap="round"/>
<path opacity="0.9" d="M129.271 231.219V235.515" stroke="#3F5167" stroke-width="2" stroke-miterlimit="10" stroke-linecap="round"/>
</g>
<g opacity="0.9">
<g opacity="0.9">
<path opacity="0.9" d="M238.18 229.948C243.026 229.948 246.954 226.02 246.954 221.175C246.954 216.33 243.026 212.402 238.18 212.402C233.335 212.402 229.407 216.33 229.407 221.175C229.407 226.02 233.335 229.948 238.18 229.948Z" stroke="#3F5167" stroke-width="2" stroke-miterlimit="10" stroke-linecap="round"/>
<path opacity="0.9" d="M238.18 221.175V234.97" stroke="#3F5167" stroke-width="2" stroke-miterlimit="10" stroke-linecap="round"/>
</g>
<g opacity="0.9">
<path opacity="0.9" d="M226.079 225.774C226.2 225.532 226.261 225.229 226.261 224.926C226.261 223.535 225.111 222.385 223.72 222.385C222.328 222.385 221.178 223.535 221.178 224.926C221.178 225.229 221.239 225.471 221.36 225.774C220.513 226.439 219.968 227.528 219.968 228.738C219.968 230.795 221.663 232.49 223.72 232.49C225.777 232.49 227.471 230.795 227.471 228.738C227.532 227.528 226.987 226.439 226.079 225.774Z" stroke="#3F5167" stroke-width="2" stroke-miterlimit="10" stroke-linecap="round"/>
<path opacity="0.9" d="M226.079 225.774C226.2 225.532 226.261 225.229 226.261 224.926C226.261 223.535 225.111 222.385 223.72 222.385C222.328 222.385 221.178 223.535 221.178 224.926C221.178 225.229 221.239 225.471 221.36 225.774C220.513 226.439 219.968 227.528 219.968 228.738C219.968 230.795 221.663 232.49 223.72 232.49C225.777 232.49 227.471 230.795 227.471 228.738C227.532 227.528 226.987 226.439 226.079 225.774Z" stroke="#3F5167" stroke-width="2" stroke-miterlimit="10" stroke-linecap="round"/>
<path opacity="0.9" d="M223.72 228.738V234.97" stroke="#3F5167" stroke-width="2" stroke-miterlimit="10" stroke-linecap="round"/>
</g>
</g>
<g opacity="0.9">
<g opacity="0.9">
<path opacity="0.9" d="M113.903 230.614C118.08 230.614 121.466 227.228 121.466 223.051C121.466 218.874 118.08 215.488 113.903 215.488C109.726 215.488 106.34 218.874 106.34 223.051C106.34 227.228 109.726 230.614 113.903 230.614Z" stroke="#3F5167" stroke-width="2" stroke-miterlimit="10" stroke-linecap="round"/>
<path opacity="0.9" d="M113.903 230.614C118.08 230.614 121.466 227.228 121.466 223.051C121.466 218.874 118.08 215.488 113.903 215.488C109.726 215.488 106.34 218.874 106.34 223.051C106.34 227.228 109.726 230.614 113.903 230.614Z" stroke="#3F5167" stroke-width="2" stroke-miterlimit="10" stroke-linecap="round"/>
<path opacity="0.9" d="M113.903 235.878V223.716" stroke="#3F5167" stroke-width="2" stroke-miterlimit="10" stroke-linecap="round"/>
</g>
</g>
<g opacity="0.9">
<path opacity="0.9" d="M196.734 234.97V193.887L214.341 186.385V234.97" stroke="#3F5167" stroke-width="2" stroke-miterlimit="10" stroke-linecap="round"/>
<g opacity="0.9">
<g opacity="0.9">
<path opacity="0.9" d="M196.734 229.101H214.341" stroke="#3F5167" stroke-width="2" stroke-miterlimit="10" stroke-linecap="round"/>
</g>
<g opacity="0.9">
<path opacity="0.9" d="M196.734 224.079H214.341" stroke="#3F5167" stroke-width="2" stroke-miterlimit="10" stroke-linecap="round"/>
</g>
<g opacity="0.9">
<path opacity="0.9" d="M196.734 219.057H214.341" stroke="#3F5167" stroke-width="2" stroke-miterlimit="10" stroke-linecap="round"/>
</g>
<g opacity="0.9">
<path opacity="0.9" d="M196.734 214.036H214.341" stroke="#3F5167" stroke-width="2" stroke-miterlimit="10" stroke-linecap="round"/>
</g>
<g opacity="0.9">
<path opacity="0.9" d="M196.734 209.014H214.341" stroke="#3F5167" stroke-width="2" stroke-miterlimit="10" stroke-linecap="round"/>
</g>
<g opacity="0.9">
<path opacity="0.9" d="M196.734 203.992H214.341" stroke="#3F5167" stroke-width="2" stroke-miterlimit="10" stroke-linecap="round"/>
</g>
<g opacity="0.9">
<path opacity="0.9" d="M196.734 198.909H214.341" stroke="#3F5167" stroke-width="2" stroke-miterlimit="10" stroke-linecap="round"/>
</g>
</g>
</g>
<g opacity="0.9">
<path opacity="0.9" d="M146.636 175.917V173.437H149.177V175.917" stroke="#3F5167" stroke-width="2" stroke-miterlimit="10" stroke-linecap="round"/>
<path opacity="0.9" d="M156.74 234.97C151.658 213.309 149.177 198.425 155.409 189.712H140.465C146.697 198.425 144.216 213.309 139.133 234.97" stroke="#3F5167" stroke-width="2" stroke-miterlimit="10" stroke-linecap="round"/>
<path opacity="0.9" d="M136.411 187.232C136.834 188.139 137.318 188.986 137.863 189.773H157.951C158.556 188.986 159.04 188.139 159.403 187.232" stroke="#3F5167" stroke-width="2" stroke-miterlimit="10" stroke-linecap="round"/>
<g opacity="0.9">
<path opacity="0.9" d="M154.441 179.669C153.11 177.43 150.69 175.917 147.907 175.917C145.123 175.917 142.703 177.43 141.372 179.669" stroke="#3F5167" stroke-width="2" stroke-miterlimit="10" stroke-linecap="round"/>
</g>
<path opacity="0.9" d="M159.463 184.751C158.616 182.754 157.224 181 155.47 179.729H140.404C138.649 181 137.318 182.754 136.411 184.751" stroke="#3F5167" stroke-width="2" stroke-miterlimit="10" stroke-linecap="round"/>
<path opacity="0.9" d="M160.431 184.751H135.322V187.292H160.431V184.751Z" stroke="#3F5167" stroke-width="2" stroke-miterlimit="10" stroke-linecap="round"/>
<path opacity="0.9" d="M160.431 184.751H135.322V187.292H160.431V184.751Z" stroke="#3F5167" stroke-miterlimit="10" stroke-linecap="round"/>
<g opacity="0.9">
<path opacity="0.9" d="M159.463 184.751C158.616 182.754 157.224 181 155.47 179.729" stroke="#3F5167" stroke-width="2" stroke-miterlimit="10" stroke-linecap="round"/>
<path opacity="0.9" d="M140.404 179.669C138.649 180.939 137.318 182.694 136.411 184.691" stroke="#3F5167" stroke-width="2" stroke-miterlimit="10" stroke-linecap="round"/>
<path opacity="0.9" d="M140.404 179.669H155.47" stroke="#3F5167" stroke-width="2" stroke-miterlimit="10" stroke-linecap="round"/>
</g>
<g opacity="0.9">
<path opacity="0.9" d="M154.441 179.669C153.11 177.43 150.69 175.917 147.907 175.917C145.123 175.917 142.703 177.43 141.372 179.669" stroke="#3F5167" stroke-width="2" stroke-miterlimit="10" stroke-linecap="round"/>
</g>
<path opacity="0.9" d="M147.907 173.437V164.603" stroke="#3F5167" stroke-width="2" stroke-miterlimit="10" stroke-linecap="round"/>
<path opacity="0.9" d="M136.411 187.232C136.834 188.139 137.318 188.986 137.863 189.773H157.951C158.556 188.986 159.04 188.139 159.403 187.232" stroke="#3F5167" stroke-width="2" stroke-miterlimit="10" stroke-linecap="round"/>
<path opacity="0.9" d="M147.907 192.254V234.97" stroke="#3F5167" stroke-width="2" stroke-miterlimit="10" stroke-linecap="round"/>
<path opacity="0.9" d="M140.465 189.773C146.697 198.486 144.216 213.37 139.133 235.031" stroke="#3F5167" stroke-width="2" stroke-miterlimit="10" stroke-linecap="round"/>
<path opacity="0.9" d="M155.409 189.773C149.177 198.486 151.658 213.37 156.74 235.031" stroke="#3F5167" stroke-width="2" stroke-miterlimit="10" stroke-linecap="round"/>
<path opacity="0.9" d="M155.47 192.254H140.404" stroke="#3F5167" stroke-width="2" stroke-miterlimit="10" stroke-linecap="round"/>
<path opacity="0.9" d="M146.636 175.917V173.437H149.177V175.917" stroke="#3F5167" stroke-width="2" stroke-miterlimit="10" stroke-linecap="round"/>
<path opacity="0.9" d="M159.463 184.751C158.616 182.754 157.224 181 155.47 179.729H140.404C138.649 181 137.318 182.754 136.411 184.751" stroke="#3F5167" stroke-width="2" stroke-miterlimit="10" stroke-linecap="round"/>
<g opacity="0.9">
<path opacity="0.9" d="M154.441 179.669C153.11 177.43 150.69 175.917 147.907 175.917C145.123 175.917 142.703 177.43 141.372 179.669" stroke="#3F5167" stroke-width="2" stroke-miterlimit="10" stroke-linecap="round"/>
</g>
<path opacity="0.9" d="M147.907 173.437V164.603" stroke="#3F5167" stroke-width="2" stroke-miterlimit="10" stroke-linecap="round"/>
<path opacity="0.9" d="M146.636 175.917V173.437H149.177V175.917" stroke="#3F5167" stroke-width="2" stroke-miterlimit="10" stroke-linecap="round"/>
</g>
<g opacity="0.9">
<path opacity="0.9" d="M194.193 162.304H179.127V164.845H194.193V162.304Z" stroke="#3F5167" stroke-width="2" stroke-miterlimit="10" stroke-linecap="round"/>
<path opacity="0.9" d="M176.647 164.845H196.734V234.97" stroke="#3F5167" stroke-width="2" stroke-miterlimit="10" stroke-linecap="round"/>
<path opacity="0.9" d="M176.647 235.878V230.614" stroke="#3F5167" stroke-width="2" stroke-miterlimit="10" stroke-linecap="round"/>
<path opacity="0.9" d="M176.647 206.714V164.845H196.734V234.97" stroke="#3F5167" stroke-width="2" stroke-miterlimit="10" stroke-linecap="round"/>
<path opacity="0.9" d="M181.669 174.889V235.878" stroke="#3F5167" stroke-width="2" stroke-miterlimit="10" stroke-linecap="round"/>
<path opacity="0.9" d="M186.691 174.889V235.878" stroke="#3F5167" stroke-width="2" stroke-miterlimit="10" stroke-linecap="round"/>
<path opacity="0.9" d="M191.713 174.889V235.878" stroke="#3F5167" stroke-width="2" stroke-miterlimit="10" stroke-linecap="round"/>
<path opacity="0.9" d="M174.105 169.02H199.276" stroke="#3F5167" stroke-width="2" stroke-miterlimit="10" stroke-linecap="round"/>
<path opacity="0.9" d="M194.193 162.304H179.127V164.845H194.193V162.304Z" stroke="#3F5167" stroke-width="2" stroke-miterlimit="10" stroke-linecap="round"/>
<path opacity="0.9" d="M175.376 172.408H198.005" stroke="#3F5167" stroke-width="2" stroke-miterlimit="10" stroke-linecap="round"/>
<path opacity="0.9" d="M189.171 152.26V162.304" stroke="#3F5167" stroke-width="2" stroke-miterlimit="10" stroke-linecap="round"/>
<path opacity="0.9" d="M184.149 162.304H181.669V159.823L184.149 161.093V162.304Z" stroke="#3F5167" stroke-width="2" stroke-miterlimit="10" stroke-linecap="round"/>
<path opacity="0.9" d="M191.713 162.304V159.823" stroke="#3F5167" stroke-width="2" stroke-miterlimit="10" stroke-linecap="round"/>
</g>
<path d="M175.558 211.615C178.341 214.338 178.946 218.634 176.949 222.022L169.628 234.426L162.307 222.022C160.31 218.634 160.915 214.338 163.699 211.615C167.026 208.409 172.29 208.409 175.558 211.615Z" stroke="#3F5167" stroke-width="2" stroke-miterlimit="10" stroke-linecap="round"/>
<path d="M169.689 221.115C171.56 221.115 173.077 219.598 173.077 217.726C173.077 215.855 171.56 214.338 169.689 214.338C167.817 214.338 166.3 215.855 166.3 217.726C166.3 219.598 167.817 221.115 169.689 221.115Z" stroke="#3F5167" stroke-width="2" stroke-miterlimit="10" stroke-linecap="round"/>
<path d="M152.626 516.32C152.505 515.896 152.505 515.473 152.505 515.049C152.505 511.903 155.046 509.362 158.193 509.362C160.673 509.362 162.791 510.995 163.578 513.234" stroke="#3F5167" stroke-width="2" stroke-miterlimit="10" stroke-linecap="round"/>
<path d="M163.517 513.294C163.82 513.173 164.183 513.113 164.546 513.113C166.361 513.113 167.813 514.505 167.934 516.32" stroke="#3F5167" stroke-width="2" stroke-miterlimit="10" stroke-linecap="round"/>
<path d="M152.687 520.676C151.477 520.676 150.508 519.708 150.508 518.498C150.508 517.288 151.477 516.32 152.687 516.32H152.626" stroke="#3F5167" stroke-width="2" stroke-miterlimit="10" stroke-linecap="round"/>
<path d="M167.934 516.32H169.749C170.959 516.32 171.927 517.288 171.927 518.498C171.927 519.708 170.959 520.676 169.749 520.676" stroke="#3F5167" stroke-width="2" stroke-miterlimit="10" stroke-linecap="round"/>
<path d="M158.979 524.79H177.796" stroke="#3F5167" stroke-width="2" stroke-miterlimit="10" stroke-linecap="round"/>
<path d="M181.911 524.79H187.235" stroke="#3F5167" stroke-width="2" stroke-miterlimit="10" stroke-linecap="round"/>
<path d="M151.961 529.51H163.699" stroke="#3F5167" stroke-width="2" stroke-miterlimit="10" stroke-linecap="round"/>
<path d="M170.173 529.51H174.892" stroke="#3F5167" stroke-width="2" stroke-miterlimit="10" stroke-linecap="round"/>
<path d="M157.527 572.65L154.26 585.84H160.855L157.527 572.65Z" stroke="#3F5167" stroke-width="2" stroke-miterlimit="10" stroke-linecap="round"/>
<path d="M157.527 572.65L154.26 585.84H160.855L157.527 572.65Z" stroke="#3F5167" stroke-width="2" stroke-miterlimit="10" stroke-linecap="round"/>
<path d="M157.527 585.84V591.407" stroke="#3F5167" stroke-width="2" stroke-miterlimit="10" stroke-linecap="round"/>
<path d="M141.372 585.659C146.852 585.659 151.295 581.216 151.295 575.736C151.295 570.256 146.852 565.813 141.372 565.813C135.892 565.813 131.449 570.256 131.449 575.736C131.449 581.216 135.892 585.659 141.372 585.659Z" stroke="#3F5167" stroke-width="2" stroke-miterlimit="10" stroke-linecap="round"/>
<path d="M141.372 585.659C146.852 585.659 151.295 581.216 151.295 575.736C151.295 570.256 146.852 565.813 141.372 565.813C135.892 565.813 131.449 570.256 131.449 575.736C131.449 581.216 135.892 585.659 141.372 585.659Z" stroke="#3F5167" stroke-width="2" stroke-miterlimit="10" stroke-linecap="round"/>
<path d="M141.372 591.407V576.522" stroke="#3F5167" stroke-width="2" stroke-miterlimit="10" stroke-linecap="round"/>
<path d="M204.177 590.197V570.653C204.177 570.109 203.874 569.564 203.39 569.262L186.146 559.944C185.601 559.641 184.996 559.641 184.452 559.944L167.208 569.201C166.724 569.504 166.421 570.048 166.421 570.593V590.136C166.421 591.044 167.147 591.77 168.055 591.77H195.161" stroke="#3F5167" stroke-width="2" stroke-miterlimit="10" stroke-linecap="round"/>
<path d="M199.215 585.538V573.376C199.215 572.65 198.61 572.045 197.884 572.045H172.714C171.988 572.045 171.383 572.65 171.383 573.376V591.346" stroke="#3F5167" stroke-width="2" stroke-miterlimit="10" stroke-linecap="round"/>
<path d="M203.571 594.492H195.827C195.464 594.492 195.222 594.25 195.222 593.887V586.99C195.222 586.627 195.464 586.385 195.827 586.385H203.571C203.934 586.385 204.177 586.627 204.177 586.99V593.887C204.177 594.25 203.874 594.492 203.571 594.492Z" stroke="#3F5167" stroke-width="2" stroke-miterlimit="10" stroke-linecap="round"/>
<path d="M212.526 594.492H204.782C204.419 594.492 204.177 594.25 204.177 593.887V586.99C204.177 586.627 204.419 586.385 204.782 586.385H212.526C212.889 586.385 213.131 586.627 213.131 586.99V593.887C213.131 594.25 212.889 594.492 212.526 594.492Z" stroke="#3F5167" stroke-width="2" stroke-miterlimit="10" stroke-linecap="round"/>
<path d="M188.99 569.322H181.548C181.366 569.322 181.245 569.201 181.245 569.02V566.963C181.245 566.781 181.366 566.66 181.548 566.66H188.99C189.171 566.66 189.292 566.781 189.292 566.963V569.02C189.353 569.201 189.171 569.322 188.99 569.322Z" stroke="#3F5167" stroke-width="2" stroke-miterlimit="10" stroke-linecap="round"/>
<path d="M197.642 572.045H172.895C172.048 572.045 171.322 572.711 171.322 573.618V578.338H199.155V573.618C199.215 572.711 198.489 572.045 197.642 572.045Z" stroke="#3F5167" stroke-width="2" stroke-miterlimit="10" stroke-linecap="round"/>
<path d="M212.526 586.385H204.782C204.419 586.385 204.177 586.143 204.177 585.78V578.882C204.177 578.519 204.419 578.277 204.782 578.277H212.526C212.889 578.277 213.131 578.519 213.131 578.882V585.78C213.131 586.143 212.889 586.385 212.526 586.385Z" stroke="#3F5167" stroke-width="2" stroke-miterlimit="10" stroke-linecap="round"/>
<path d="M204.237 578.519L206.234 581.06H210.893L212.889 578.519C212.768 578.398 212.647 578.338 212.466 578.338H204.54C204.479 578.338 204.298 578.398 204.237 578.519Z" stroke="#3F5167" stroke-width="2" stroke-miterlimit="10" stroke-linecap="round"/>
<path d="M203.753 586.566L205.75 589.107H210.409L212.405 586.566C212.284 586.445 212.163 586.385 211.982 586.385H204.056C203.995 586.385 203.874 586.506 203.753 586.566Z" stroke="#3F5167" stroke-width="2" stroke-miterlimit="10" stroke-linecap="round"/>
<path d="M195.343 586.566L197.339 589.107H201.998L203.995 586.566C203.874 586.445 203.753 586.385 203.571 586.385H195.645C195.524 586.385 195.403 586.506 195.343 586.566Z" stroke="#3F5167" stroke-width="2" stroke-miterlimit="10" stroke-linecap="round"/>
<path d="M171.383 575.191H199.215" stroke="#3F5167" stroke-width="2" stroke-miterlimit="10" stroke-linecap="round"/>
</svg>
